{
  "name": "RFData",
  "fields": [
    {
      "fieldName": "rssi",
      "fieldType": "Double"
    },
    {
      "fieldName": "altitude",
      "fieldType": "Double"
    },
    {
      "fieldName": "middleFrequency",
      "fieldType": "Double"
    },
    {
      "fieldName": "date",
      "fieldType": "Instant"
    }
  ],
  "relationships": [],
  "changelogDate": "20200616202012",
  "entityTableName": "rf_data",
  "dto": "mapstruct",
  "pagination": "pagination",
  "service": "serviceClass",
  "jpaMetamodelFiltering": true,
  "fluentMethods": true,
  "readOnly": false,
  "embedded": false,
  "clientRootFolder": "",
  "applications": ["gateway", "web", "sensorb"],
  "microserviceName": "sensorb"
}
